{
    "Channel": [
        {
            "channelId": "UCV53DbVhBo9RYvGa903AORw",
            "username": "",
            "title": "La Télé du Développement Personnel",
            "summary": "Consulter le site officiel ici : http://www.academie-developpement-personnel.com\nLa télé du développement personnel diffuse des conférences sur le thème du développement personnel pour cheminer jour après jour vers une meilleure vie.",
            "publishedAt": "2016-06-08T15:00:01.000Z",
            "countryCode": "FR",
            "languageId": 1,
            "typeId": 0,
            "thumbnail": {
                "url": "https://yt3.ggpht.com/a/AGF-l79GZ0N1roq2VEQVRxb06IsmudnTWvojF_IR3A=s800-c-k-c0xffffffff-no-rj-mo",
                "width": 800,
                "height": 800
            },
            "uploadsPlaylistsId": "UUV53DbVhBo9RYvGa903AORw"
            
        },
        {
            "channelId": "UCc6i7tMzrbBX7xUZiUVzlQA",
            "username": "lateledeliloumace",
            "title": "La Télé de Lilou Macé",
            "summary": "Lilou Macé, intervieweuse et autour parcours le monde et partage sur ses webTV un contenu unique et inspirant.",
            "publishedAt": "2013-08-11T14:46:00.000Z",
            "countryCode": "FR",
            "languageId": 1,
            "typeId": 0,
            "thumbnail": {
                "url": "https://yt3.ggpht.com/a/AGF-l78ptjKa5O6_J-6NqNd7vYHN5exbFBoXvBTebQ=s800-c-k-c0xffffffff-no-rj-mo",
                "width": 800,
                "height": 800
            },
            "uploadsPlaylistsId": "UUc6i7tMzrbBX7xUZiUVzlQA"
        },
        {
            "channelId": "UChcIFyud8lRlBqJtjBQKuFA",
            "username": "tistrya",
            "title": "Tistrya",
            "summary": "Reportages - Documentaires - Interviews\nhttp://www.tistryaprod.com",
            "publishedAt": "2013-04-24T07:07:43.000Z",
            "countryCode": "FR",
            "languageId": 1,
            "typeId": 0,
            "thumbnail": {
                "url": "https://yt3.ggpht.com/a/AGF-l78M8Hn3kw2GO_zArRHnHtLpJBizCQA9dLqqXg=s800-c-k-c0xffffffff-no-rj-mo",
                "width": 800,
                "height": 800
            },
            "uploadsPlaylistsId": "UUhcIFyud8lRlBqJtjBQKuFA"
        },
        {
            "channelId": "UCufimeEpkzNruPJuiz6LFXw",
            "username": "",
            "title": "Soif de Joie",
            "summary": "Bienvenu à tous sur cette page dédiée à 100% au développement personnel et au bonheur.\n\nVous retrouverez ici de nombreuses publications sur le bien-être, la spiritualité, la pensée positive et tellement d'autres sujets pour améliorer nos vies.\n\nL'idée principale est de rebooster notre pays qui est aujourd'hui jugé comme le plus dépressif d'Europe.\n\nAllons, ensemble je sais que nous arriverons à apporter de la joie, de la gaieté et de la bonne humeur par le biais des réseaux sociaux.\n\nAlors n'hésitez pas à venir débattre et à partager votre bonheur ici !",
            "publishedAt": "2019-03-19T15:54:46.000Z",
            "countryCode": "FR",
            "languageId": 1,
            "typeId": 0,
            "thumbnail": {
                "url": "https://yt3.ggpht.com/a/AGF-l79chmspW-exrgWCfJZbf7PPtGWvKv3IVejhrw=s800-c-k-c0xffffffff-no-rj-mo",
                "width": 800,
                "height": 800
            },
            "uploadsPlaylistsId": "UUufimeEpkzNruPJuiz6LFXw"
        },
        {
            "channelId": "UCwOUqNMuahMByymSgL-LNaQ",
            "username": "",
            "title": "Motivation du Succès",
            "summary": "Réussir à atteindre tes objectifs ?\n\nC'est ce que tente de faire la chaîne Motivation du Succès en te faisant découvrir chaque semaine une vidéo motivante et inspirante qui te permette de booster ton mental.\n\nAbonne-toi pour n'en louper aucune ! ;)",
            "publishedAt": "2019-01-05T15:45:50.000Z",
            "countryCode": "FR",
            "languageId": 1,
            "typeId": 0,
            "thumbnail": {
                "url": "https://yt3.ggpht.com/a/AGF-l7-lzMOm0Mskh40CfguBvorBGRkAkjMCMNPOVw=s800-c-k-c0xffffffff-no-rj-mo",
                "width": 800,
                "height": 800
            },
            "uploadsPlaylistsId": "UUwOUqNMuahMByymSgL-LNaQ"
        },
        {
            "channelId": "UCNndPmM4bd3pf3JXklmqbfw",
            "username": "loidelattractionbyjimmy",
            "title": "Loi de L'attraction",
            "summary": "La loi de l'attraction est une science, sur cette chaîne nous redécouvrons ensemble la loi de l'attraction, comment l'utiliser, des témoignages de célébrité... Mon but et d'inspiré 100 millions de personne sur cette planète.",
            "publishedAt": "2018-03-09T19:20:40.000Z",
            "countryCode": "FR",
            "languageId": 1,
            "typeId": 0,
            "thumbnail": {
                "url": "https://yt3.ggpht.com/a/AGF-l7_C5D7F6Wj8CSuP8h0XP70QZaOPUJYW0tvQ0Q=s800-c-k-c0xffffffff-no-rj-mo",
                "width": 800,
                "height": 800
            },
            "uploadsPlaylistsId": "UUNndPmM4bd3pf3JXklmqbfw"
        },
        {
            "channelId": "UCBH_pTiinRcmvz0bjnege-Q",
            "username": "davidlarochefrench",
            "title": "David Laroche FR",
            "summary": "La chaîne Youtube officielle de David Laroche\nDes conseils pratiques pour réaliser ses objectifs, gagner en confiance en soi.\nVidéos de motivations et interviews pour vous aider à accélérer vos résultats.",
            "publishedAt": "2012-03-07T18:59:27.000Z",
            "countryCode": "FR",
            "languageId": 1,
            "typeId": 0,
            "thumbnail": {
                "url": "https://yt3.ggpht.com/a/AGF-l78__irAHuw2aR4HohP5iE-YDvVk7k6SzVKXoQ=s800-c-k-c0xffffffff-no-rj-mo",
                "width": 800,
                "height": 800
            },
            "uploadsPlaylistsId": "UUBH_pTiinRcmvz0bjnege-Q"
        },
        {
            "channelId": "UCi9glDl-8YhSfxv4ewT3CpQ",
            "username": "luciediez",
            "title": "Lucie Diez",
            "summary": "J'explore le web depuis plus de 15 ans à la recherche de solution pour être plus heureux. Je collectionne les tests de personnalité qui m'aident à me comprendre moi même. Je me passionne pour toute technique m'aidant à trouver ma place dans ce monde. Je découvre des moyens d'automatiser ce que je déteste faire pour me dédier entièrement à ma passion : apprendre des trucs. \nEt je partage les concepts que je découvre avec toi !\n\nSur mon parcours, j'écoute des témoignages, notamment de femmes inspirantes, entreprenantes, déterminées et visionnaires. J'ai la chance de pouvoir les interviewer pour que toi aussi tu puisses en profiter !",
            "publishedAt": "2013-01-27T00:39:00.000Z",
            "countryCode": "FR",
            "languageId": 1,
            "typeId": 0,
            "thumbnail": {
                "url": "https://yt3.ggpht.com/a/AGF-l7_Q8SJydws_yg9di34MVoUE90jx6X53C97tzA=s800-c-k-c0xffffffff-no-rj-mo",
                "width": 800,
                "height": 800
            },
            "uploadsPlaylistsId": "UUi9glDl-8YhSfxv4ewT3CpQ"
        },
        {
            "channelId": "UCKq-X_DtfCg_8DYEtJ7RRRQ",
            "username": "",
            "title": "Séréna",
            "summary": "Séréna est la chaîne bien-être et de développement personnel. Je propose des vidéos sur la sophrologie, l'hypnose et des méditations...\n\nJe suis heureuse de vous aider découvrir votre plein potentiel et devenir la meilleure version de vous même !\nJ'ai créer un blog où je vous partage mes meilleurs conseils bien-être : https://serenabienetre.com/\n\n-  Romy Sousa, Sophrologue Praticienne en Hypnose et Énergéticienne \n\nPour vous souhaiter la bienvenue sur la chaîne je vous offre en CADEAU le E-Book gratuit \"3 clés de la CONFIANCE en SOI\" : https://serenabienetre.com/ebookles3piliersdelaconfianceensoi/\n\n✪ Site web  : https://serenabienetre.com/\n✪ Demandes professionnelles  : romysousa.serena@gmail.com\n✪ Page Facebook  : @SerenaBienetre ou https://www.facebook.com/pg/SerenaBienetre/\n✪ Instagram : serena.bienetre ou https://www.instagram.com/serena.bienetre/ \n✪ Pinterest : https://www.pinterest.fr/serenabienetre/\n\n© 2017 Séréna - Bien-être et développement personnel | Tous droits réservés.",
            "publishedAt": "2017-03-21T18:41:14.000Z",
            "countryCode": "FR",
            "languageId": 1,
            "typeId": 0,
            "thumbnail": {
                "url": "https://yt3.ggpht.com/a/AGF-l78FH-Ar4hXl7D8WpYX2_0QvZRZkCJMcxD7z0w=s800-c-k-c0xffffffff-no-rj-mo",
                "width": 800,
                "height": 800
            },
            "uploadsPlaylistsId": "UUKq-X_DtfCg_8DYEtJ7RRRQ"
        },
        {
            "channelId": "UCcw0HJKwWG0wQvEEzRVctcQ",
            "username": "joannetathamtv",
            "title": "Joanne Tatham",
            "summary": "Business + Alignement + Visibilité + Libération Collective\n\nPour les entrepreneures spirituelles & engagées qui souhaitent se rendre Visibles, diffuser leur Message & avoir plus d’Impact en restant pleinement elles-mêmes et sans se plier à la culture du “travailler plus”.\n\n\n🌟 RESSOURCES GRATUITES 🌟  \n\n➤ Si tu souhaites être plus focusée, alignée et avoir plus d'impact au quotidien dans ton business, télécharge la checklist de la routine matinale ultime pour démarrer tes journées du bon pied ! http://joannetatham.fr/routine  \n\n\n➤ Si tu souhaites trouver tes client·e·s plus facilement sur internet, télécharge mon pense-bête gratuit \"Être Visible et mieux Communiquer sur les Réseaux Sociaux pour ton business\" : http://joannetatham.fr/reseauxsociaux",
            "publishedAt": "2011-01-26T21:49:39.000Z",
            "countryCode": "FR",
            "languageId": 1,
            "typeId": 0,
            "thumbnail": {
                "url": "https://yt3.ggpht.com/a/AGF-l786OANiJDBvEcZh2K8R1-YP7LAbUtcU89wB4Q=s800-c-k-c0xffffffff-no-rj-mo",
                "width": 800,
                "height": 800
            },
            "uploadsPlaylistsId": "UUcw0HJKwWG0wQvEEzRVctcQ"
        },
        {
            "channelId": "UChowcvAgA1jBB1T7IZY1dkg",
            "username": "akashawebradiotv",
            "title": "Akasha Média",
            "summary": "Pourquoi Akasha MédiaradioTV ?\n\nDans la tradition antique l’akasha est un lieu ou niveau de conscience dans lequel est conservé la mémoire du monde incluant le passé le présent et les avenirs potentiels en une seule harmonie d’espace-temps.\n\nAkasha MédiaradioTV  a été créé dans cette idée que ce lieu ne soit pas dans un imaginaire ouaté mais serve d’inspiration a des échanges, entretiens, et des émissions musicales qui reflètent les horizons culturels et spirituels de ce monde.\n\nLa ligne éditoriale vise à se servir des expériences de chacun pour échanger, témoigner et transmettre sur tout sujet afin que se pose en trame de fond un lumineux reflets d’un hologramme akashique.\n\nLes archives des étoiles de Jean-Claude Carton\n\nAkasha MédiaradioTV édite également le trésor d’archives des émissions audio laissé par Jean-Claude Carton, qui nous a quitté en 2015.\nPlus de 300 émissions regroupées sur le site oserlimpossible.fr réunies par plusieurs thématiques avec certains",
            "publishedAt": "2013-10-30T12:02:32.000Z",
            "countryCode": "FR",
            "languageId": 1,
            "typeId": 0,
            "thumbnail": {
                "url": "https://yt3.ggpht.com/a/AGF-l7-R--6GwlK0zUAYhWvaLtOpBbSpzsgkK9OeIA=s800-c-k-c0xffffffff-no-rj-mo",
                "width": 800,
                "height": 800
            },
            "uploadsPlaylistsId": "UUhowcvAgA1jBB1T7IZY1dkg"
        },
        {
            "channelId": "UCvq4sennWMM5hxDKfxIoojg",
            "username": "olivierroland",
            "title": "Olivier Roland",
            "summary": "Liberté | Inspiration | Motivation  \nLes clés de la liberté pour les entrepreneurs et les rebelles intelligents\n\nOlivier Roland est un passionné, un éternel étudiant de la vie et de l’entreprenariat,  accro aux livres et aux voyages. Il lie ces passions en voyageant dans des dizaines de pays, sur tous les continents pour rencontrer et apprendre des plus brillantes personnalités et entrepreneurs.\n \nMilitant d’un entreprenariat rebelle, Olivier a mis en pratique sa vision à 18 ans en abandonnant ses études pour créer sa première entreprise. Ce fut une formidable aventure, mais qui s'est rapidement transformée en prison dorée dans laquelle il travaillait 60 à 70 heures par semaines. \n\nIl s’oriente vers la recherche d’un nouveau style de vie et créé sa seconde entreprise, Roland Publishing, entièrement en ligne, ce qui lui permet de voyager partout dans le monde tout en apportant de la valeur à des dizaines de milliers de personnes partout dans le monde.",
            "publishedAt": "2009-08-18T20:11:21.000Z",
            "countryCode": "FR",
            "languageId": 1,
            "typeId": 0,
            "thumbnail": {
                "url": "https://yt3.ggpht.com/a/AGF-l785X9T3uNPhT2tOEH8d6VvJ6b2By1QfjTmpkg=s800-c-k-c0xffffffff-no-rj-mo",
                "width": 800,
                "height": 800
            },
            "uploadsPlaylistsId": "UUvq4sennWMM5hxDKfxIoojg"
        },
        {
            "channelId": "UCNi3JewSTjQN0N93nsYOUqA",
            "username": "lechoubravemagazine",
            "title": "Le Chou Brave",
            "summary": "La chaîne du mieux-être sur tous les plans, par Le Chou brave TV.\n\nAlimentation vivante, abondance au quotidien, joie de vivre, changement de regard, partage, autre manière de vivre, autant d'ingrédients du nouveau monde ! Raw food TV",
            "publishedAt": "2012-12-06T15:54:17.000Z",
            "countryCode": "FR",
            "languageId": 1,
            "typeId": 0,
            "thumbnail": {
                "url": "https://yt3.ggpht.com/a/AGF-l7_xH_FFFYJZyarUUVNuFo-gqQmkrFoYb7LToA=s800-c-k-c0xffffffff-no-rj-mo",
                "width": 800,
                "height": 800
            },
            "uploadsPlaylistsId": "UUNi3JewSTjQN0N93nsYOUqA"
        },
        {
            "channelId": "UCOPYmqe_bNzjYErvNEGJ5og",
            "username": "francknicolasofficiel",
            "title": "Franck Nicolas",
            "summary": "Depuis les 20 dernières années la passion de Franck Nicolas, expert en leadership et coach professionnel, est d’aider les gens et les entreprises à maitriser les stratégies de l’engagement maximal, de leur permettre de passer au niveau supérieur dans la mise en œuvre de leur vision et de leurs projets de croissance.\n\nPrésident de quatre entreprises, dont un fond d’investissement de 15 millions de dollars destiné aux Start-up dans le domaine du service, de la santé, et de l’Internet, Franck est avant tout considéré comme le chef de file francophone des conférenciers en stratégie du leadership & entrepreneurship dans la francophonie. \n\nCe dont Franck est aussi le plus fier c’est de pouvoir à présent contribuer pour un monde meilleur au sein de GLOB mais aussi de ses activités de Philanthropie.",
            "publishedAt": "2012-08-21T02:31:49.000Z",
            "countryCode": "CA",
            "languageId": 1,
            "typeId": 0,
            "thumbnail": {
                "url": "https://yt3.ggpht.com/a/AGF-l78shp7aMorcZwT_OMcQheINiTun-EGftdyL=s800-c-k-c0xffffffff-no-rj-mo",
                "width": 800,
                "height": 800
            },
            "uploadsPlaylistsId": "UUOPYmqe_bNzjYErvNEGJ5og"
        },
        {
            "channelId": "UCNxcVC0n4r982lmv9DxznpQ",
            "username": "jamallazaar",
            "title": "Jamal Lazaar",
            "summary": "La chaine officielle de Jamal Lazaar.\nSuccès | Inspiration | Motivation\n\nMa mission est d’aider un million de personne à atteindre leurs objectifs, je vais accomplir cet objectif en partageant mes connaissances et donner le meilleur service possible et je vais mesurer ça en aidant plus de 100 000 personnes tous les ans à vivre la vie dont ils ont toujours rêvé.",
            "publishedAt": "2017-07-06T11:49:43.000Z",
            "countryCode": "FR",
            "languageId": 1,
            "typeId": 0,
            "thumbnail": {
                "url": "https://yt3.ggpht.com/a/AGF-l79VX8-aYT6tXwhlM3zzGn0FmrnUief51tvBmg=s800-c-k-c0xffffffff-no-rj-mo",
                "width": 800,
                "height": 800
            },
            "uploadsPlaylistsId": "UUNxcVC0n4r982lmv9DxznpQ"
        },
        {
            "channelId": "UCvlY7lI2l-kxr3SdvJuggpQ",
            "username": "sonnycourt",
            "title": "SONNY COURT",
            "summary": "De la Motivation à la Réussite ! \n\nSonny Court vous motive et vous pousse à aller de l'avant pour atteindre vos objectifs. \n\nNotre chaîne est dédiée à vous apporter un maximum de valeur sur divers sujets tels que le développement personnel, la motivation et l'entrepreneuriat. \n\nNotre objectif est de vous aider à atteindre vos objectifs.",
            "publishedAt": "2017-02-25T15:06:27.000Z",
            "countryCode": "FR",
            "languageId": 1,
            "typeId": 0,
            "thumbnail": {
                "url": "https://yt3.ggpht.com/a/AGF-l7_mo7GDABBzYPcYXS--ws2bk4F3tEeDrJAOGA=s800-c-k-c0xffffffff-no-rj-mo",
                "width": 800,
                "height": 800
            },
            "uploadsPlaylistsId": "UUvlY7lI2l-kxr3SdvJuggpQ"
        },
        {
            "channelId": "UCeR8BYZS7IHYjk_9Mh5JgkA",
            "username": "scilabus",
            "title": "Scilabus",
            "summary": "Scilabus est une chaine de vulgarisation scientifique où on se laisse guider par la curiosité. Expériences, découvertes et explications pour avoir un autre regard sur la science !\n\nVous avez une idée de vidéo qui vous démange et que vous voulez me partager ? Faites-le ici ! \nhttps://forms.gle/D8ZWha6D23EZ7Fcw9 \n(pas sur les réseaux sociaux svp, ni par mail, là au moins je peux retrouver vos propositions facilement)",
            "publishedAt": "2013-09-12T02:36:57.000Z",
            "countryCode": "FR",
            "languageId": 1,
            "typeId": 0,
            "thumbnail": {
                "url": "https://yt3.ggpht.com/a/AGF-l7_91b5-7-fQRYmegTZufDuvGZHoKsWr9jKStw=s800-c-k-c0xffffffff-no-rj-mo",
                "width": 800,
                "height": 800
            },
            "uploadsPlaylistsId": "UUeR8BYZS7IHYjk_9Mh5JgkA"
        },
        {
            "channelId": "UCtqICqGbPSbTN09K1_7VZ3Q",
            "username": "dirtybiology",
            "title": "DirtyBiology",
            "summary": "\"Tu ne voulais pas le savoir, mais maintenant c'est trop tard !\"\nDes vidéos de science sur des sujets mindfuck, crades, ou juste rigolos. Parfois on parle de biologie aussi.",
            "publishedAt": "2014-02-17T23:26:27.000Z",
            "countryCode": "FR",
            "languageId": 1,
            "typeId": 0,
            "thumbnail": {
                "url": "https://yt3.ggpht.com/a/AGF-l7-kRfn9w-2DZ4PwoWr1glE_ZqweeedJWTM-Tw=s800-c-k-c0xffffffff-no-rj-mo",
                "width": 800,
                "height": 800
            },
            "uploadsPlaylistsId": "UUtqICqGbPSbTN09K1_7VZ3Q"
        },
        {
            "channelId": "UCcziTK2NKeWtWQ6kB5tmQ8Q",
            "username": "epenser1",
            "title": "e-penser",
            "summary": "Pourquoi bâiller, c'est contagieux ? Qu'est-ce qu'un trou noir ? Comment se forment les arc-en-ciel ? Aristote a-t-il eu raison au moins une fois de son vivant ? Pourquoi 42 ? Docteur qui ? A quoi a vraiment servi Einstein ? Le boson de Higgs ?! Le lolcat de Schrödinger...\n\nRestez curieux, et prenez le temps d'e-penser.",
            "publishedAt": "2013-08-26T19:18:50.000Z",
            "countryCode": "FR",
            "languageId": 1,
            "typeId": 0,
            "thumbnail": {
                "url": "https://yt3.ggpht.com/a/AGF-l7_nAva_hDz_inceGwJ_AC4C7c8CF2eA7d7Ubw=s800-c-k-c0xffffffff-no-rj-mo",
                "width": 800,
                "height": 800
            },
            "uploadsPlaylistsId": "UUcziTK2NKeWtWQ6kB5tmQ8Q"
        },
        {
            "channelId": "UCP46_MXP_WG_auH88FnfS1A",
            "username": "notabenemovies",
            "title": "Nota Bene",
            "summary": "Nota Bene est une émission dans laquelle j'essaye de comprendre l'Histoire avec un grand H avant de vous la transmettre. Le but est de faire découvrir de nombreux sujets en rapport avec l'histoire de façon légère et compréhensible, autrement qu'avec des énumérations de dates ! N'oubliez pas de toujours prendre du recul avec ce que vous lisez/voyez/écoutez :)",
            "publishedAt": "2014-08-24T19:12:20.000Z",
            "countryCode": "FR",
            "languageId": 1,
            "typeId": 0,
            "thumbnail": {
                "url": "https://yt3.ggpht.com/a/AGF-l79p-2GtxBZsqYAr6JgN5WDrc7sjYwUaSvwYdw=s800-c-k-c0xffffffff-no-rj-mo",
                "width": 800,
                "height": 800
            },
            "uploadsPlaylistsId": "UUP46_MXP_WG_auH88FnfS1A"
        },
        {
            "channelId": "UCt8ctlakIflnSG0ebFps7cw",
            "username": "histony",
            "title": "Histony",
            "summary": "L'Histoire n'est pas composée que des potins royaux et autres anecdotes croustillantes : c'est aussi un moyen d'apprendre à réfléchir et à comprendre notre monde. Avec Veni Vidi Sensi, nous vous proposons quelques réflexions critiques pour comprendre pourquoi l'Histoire se raconte de la façon dont on la raconte et pour remettre en question quelques images d’Épinal un peu trop tenaces.\n\nChaque vidéo est accompagnée d'un article plus détaillé, avec des sources pour aller plus loin, sur le site https://venividisensivvs.wordpress.com/\n\nUne émission écrite et présentée par Histony, tournée, montée et customisée par Malo ; sous licence CC-BY-SA 4.0 (http://creativecommons.org/licenses/by-sa/4.0/)",
            "publishedAt": "2015-04-02T14:33:01.000Z",
            "countryCode": "FR",
            "languageId": 1,
            "typeId": 0,
            "thumbnail": {
                "url": "https://yt3.ggpht.com/a/AGF-l7_X4tXjpUhiLd169kgdsAW7Vyyr8tz7Pnk9Yw=s800-c-k-c0xffffffff-no-rj-mo",
                "width": 800,
                "height": 800
            },
            "uploadsPlaylistsId": "UUt8ctlakIflnSG0ebFps7cw"
        },
        {
            "channelId": "UCVeMw72tepFl1Zt5fvf9QKQ",
            "username": "osonscauser",
            "title": "Osons Causer",
            "summary": "Ça y est ! Notre site Osons Comprendre est - enfin - en ligne ! :)\nhttps://www.osonscomprendre.com\n\nLes quatre premières vidéos sont déjà publiées !\n\nPour vous remercier de rejoindre l'aventure parmi les premiers, si vous vous abonnez pendant la semaine de lancement, nous vous offrons les 30 premiers jours sur le site.\n\nComme ça, vous voyez si notre projet vous parle pendant le premier mois, sans pression et gratuitement.\n\nÉvidemment, nous on pense que ça vous plaira ! :) \n\nOn a hâte de vous retrouver sur le site ! Et évidemment on continuera à faire des vidéos Osons Causer sur Youtube et Facebook. \n\nOsons Comprendre ne remplace pas Osons Causer, les deux sont complémentaires. \n\nhttps://www.osonscomprendre.com/",
            "publishedAt": "2015-06-12T11:22:18.000Z",
            "countryCode": "FR",
            "languageId": 1,
            "typeId": 0,
            "thumbnail": {
                "url": "https://yt3.ggpht.com/a/AGF-l79-QM7NkYV3TVJZK8Jssrj0odFlAOnxsHsD=s800-c-k-c0xffffffff-no-rj-mo",
                "width": 800,
                "height": 800
            },
            "uploadsPlaylistsId": "UUVeMw72tepFl1Zt5fvf9QKQ"
        },
        {
            "channelId": "UCah8C0gmLkdtvsy0b2jrjrw",
            "username": "cyrusnorth",
            "title": "Cyrus North",
            "summary": "Braintertainment Creator. All my videos (or almost) are subtitled in english! :)\nMon cerveau. Ton cerveau. Boom.",
            "publishedAt": "2013-07-17T13:28:11.000Z",
            "countryCode": "FR",
            "languageId": 1,
            "typeId": 0,
            "thumbnail": {
                "url": "https://yt3.ggpht.com/a/AGF-l78-dZkOVP6dorZivITewT97PT1WTMd2Z-pWSQ=s800-c-k-c0xffffffff-no-rj-mo",
                "width": 800,
                "height": 800
            },
            "uploadsPlaylistsId": "UUah8C0gmLkdtvsy0b2jrjrw"
        }
        
    ]

}

